Draft Quarto document
…
here() starts at /Users/isabellvictoriastrandbyernst/Desktop/LearnR3

library(snakecase)

Importing new data

here("data-raw/nurses-stress/stress/5C/5C_1586886626/HR.csv.gz") |>
  read_csv(
    show_col_types = FALSE,
    name_repair = to_snake_case,
    n_max = 100
  )

# A tibble: 37 × 2
   collection_datetime    hr
   <dttm>              <dbl>
 1 2020-04-14 17:50:46  80.4
 2 2020-04-14 17:50:50  81.6
 3 2020-04-14 17:50:55  81.8
 4 2020-04-14 17:51:08  88.8
 5 2020-04-14 17:50:44  79.3
 6 2020-04-14 17:50:52  81.8
 7 2020-04-14 17:50:48  81.2
 8 2020-04-14 17:50:53  81.7
 9 2020-04-14 17:50:56  82  
10 2020-04-14 17:50:58  82.8
# ℹ 27 more rows

Exercise: reading other files

here("data-raw/nurses-stress/stress/5C/5C_1586886712/HR.csv.gz") |>
  read_csv(
    show_col_types = FALSE,
    name_repair = to_snake_case
  )

# A tibble: 23,517 × 2
   collection_datetime    hr
   <dttm>              <dbl>
 1 2020-04-14 17:52:12  70  
 2 2020-04-14 17:52:42  76.8
 3 2020-04-14 17:52:51  79.3
 4 2020-04-14 17:53:12  89.4
 5 2020-04-14 17:53:32 101. 
 6 2020-04-14 17:53:35 102. 
 7 2020-04-14 17:53:42 102. 
 8 2020-04-14 17:53:45 102. 
 9 2020-04-14 17:53:52 100.0
10 2020-04-14 17:54:03  94.5
# ℹ 23,507 more rows

here("data-raw/nurses-stress/stress/5C/5C_1586886712/HR.csv.gz") |>
  read_csv(
    show_col_types = FALSE,
    name_repair = to_snake_case,
    n_max = 100
  )

# A tibble: 100 × 2
   collection_datetime    hr
   <dttm>              <dbl>
 1 2020-04-14 17:52:12  70  
 2 2020-04-14 17:52:42  76.8
 3 2020-04-14 17:52:51  79.3
 4 2020-04-14 17:53:12  89.4
 5 2020-04-14 17:53:32 101. 
 6 2020-04-14 17:53:35 102. 
 7 2020-04-14 17:53:42 102. 
 8 2020-04-14 17:53:45 102. 
 9 2020-04-14 17:53:52 100.0
10 2020-04-14 17:54:03  94.5
# ℹ 90 more rows

here("data-raw/nurses-stress/stress/6B/6B_1587569373/EDA.csv.gz") |>
  read_csv(
    show_col_types = FALSE,
    name_repair = to_snake_case
  )

# A tibble: 15,617 × 2
   collection_datetime      eda
   <dttm>                 <dbl>
 1 2020-04-22 15:29:39 0.000961
 2 2020-04-22 15:29:43 0.000640
 3 2020-04-22 15:29:47 0       
 4 2020-04-22 15:29:48 0       
 5 2020-04-22 15:29:51 0       
 6 2020-04-22 15:30:23 0.00192 
 7 2020-04-22 15:31:06 0.486   
 8 2020-04-22 15:31:26 0.504   
 9 2020-04-22 15:32:00 0.568   
10 2020-04-22 15:32:02 0.570   
# ℹ 15,607 more rows

here("data-raw/nurses-stress/stress/6B/6B_1587569373/EDA.csv.gz") |>
  read_csv(
    show_col_types = FALSE,
    name_repair = to_snake_case,
    n_max = 100
  )

# A tibble: 100 × 2
   collection_datetime      eda
   <dttm>                 <dbl>
 1 2020-04-22 15:29:39 0.000961
 2 2020-04-22 15:29:43 0.000640
 3 2020-04-22 15:29:47 0       
 4 2020-04-22 15:29:48 0       
 5 2020-04-22 15:29:51 0       
 6 2020-04-22 15:30:23 0.00192 
 7 2020-04-22 15:31:06 0.486   
 8 2020-04-22 15:31:26 0.504   
 9 2020-04-22 15:32:00 0.568   
10 2020-04-22 15:32:02 0.570   
# ℹ 90 more rows
…
here("data-raw/nurses-stress/stress/5C/5C_1586886626/HR.csv.gz") |>
  read()

# A tibble: 37 × 2
   collection_datetime    hr
   <dttm>              <dbl>
 1 2020-04-14 17:50:46  80.4
 2 2020-04-14 17:50:50  81.6
 3 2020-04-14 17:50:55  81.8
 4 2020-04-14 17:51:08  88.8
 5 2020-04-14 17:50:44  79.3
 6 2020-04-14 17:50:52  81.8
 7 2020-04-14 17:50:48  81.2
 8 2020-04-14 17:50:53  81.7
 9 2020-04-14 17:50:56  82  
10 2020-04-14 17:50:58  82.8
# ℹ 27 more rows

here("data-raw/nurses-stress/stress/5C/5C_1586886712/HR.csv.gz") |>
  read()

# A tibble: 100 × 2
   collection_datetime    hr
   <dttm>              <dbl>
 1 2020-04-14 17:52:12  70  
 2 2020-04-14 17:52:42  76.8
 3 2020-04-14 17:52:51  79.3
 4 2020-04-14 17:53:12  89.4
 5 2020-04-14 17:53:32 101. 
 6 2020-04-14 17:53:35 102. 
 7 2020-04-14 17:53:42 102. 
 8 2020-04-14 17:53:45 102. 
 9 2020-04-14 17:53:52 100.0
10 2020-04-14 17:54:03  94.5
# ℹ 90 more rows
